government = tribal
add_government_reform = monstrous_horde
government_rank = 3
primary_culture = green_orc
religion = great_dookan
technology_group = tech_orcish
capital = 833

1421.1.1 = {
	monarch = {
		name = "Korgus"
		dynasty = "Dookanson"
		birth_date = 1400.12.12
		adm = 3
		dip = 3
		mil = 6
	}
}