namespace = magic_project_alchemy

#Menu
country_event = {
	id = magic_realm_transmutation.0
	title = magic_realm_transmutation.0.t
	desc = magic_realm_transmutation.0.d
	picture = STREET_SPEECH_eventPicture
	
	is_triggered_only = yes
	
	option = {	#Generic Exploration
		name = magic_realm_transmutation.0.a
		trigger = {
			has_ruler_flag = transmutation_1
			NOT = { has_ruler_flag = alchemy_brewing }
		}
		ai_chance = {
			factor = 50
		}
		
		#Cost
		add_treasury = -2
		
		#Effect
		magic_casted_spell = yes
		
		set_country_flag = alchemy_brewing
		set_country_flag = alchemy_brewing_mana_potion

	}
	
	#This should lead to alchemy events where you can succeed or fail, its like mini magic projects
	
	option = {	#Mana Potion yo - you can get addicted (mana addict ruler modifier makes u shit)
		name = magic_realm_transmutation.1.a
		trigger = {
			has_ruler_flag = transmutation_2
		}
		ai_chance = {
			factor = 50
		}
		
		#Cost
		add_treasury = -2
		
		#Effect
		magic_casted_spell = yes
		
		set_country_flag = alchemy_brewing
		set_country_flag = alchemy_brewing_mana_potion
	}
	
	option = {	#Fertility Potion
		name = magic_realm_transmutation.1.b
		trigger = {
			has_ruler_flag = transmutation_2
		}
		ai_chance = {
			factor = 50
			modifier = {
				factor = 2
				has_ruler_flag = transmutation_3
			}
		}
		
		#Cost
		add_treasury = -50
		
		#Effect
		magic_casted_spell = yes
		
		set_country_flag = alchemy_brewing
		set_country_flag = alchemy_brewing_fertility_potion
	}
	
	#Potion
	
	#Magical Brew
	
	#Superior Gun Oil
	
	#Improved Alchemist's Fire
	
	#BLACK DAMESTEAR
	
	#Potion of Superior Refreshment
	
	#Magical Adhesive (Glue)
	
	#Love Potion?
	
	#Potion of Clarity (its adderall)
	
	
	
	
	
	
	
	option = {	#Option B: Go back
		name = magic_siege.goback
		ai_chance = {
			factor = 50
		}
		country_event = { id = magic_realm_transmutation.0 days = 0 }
	}
}

#Mana Potion
country_event = {
	id = magic_project_alchemy.1
	title = magic_project_alchemy.1.t
	desc = magic_project_alchemy.1.d
	picture = wihgfx_FEMALES_eventPicture
	
	trigger = {
		has_ruler_flag = alchemy_brewing_mana_potion
	}
	
	mean_time_to_happen = {
		months = 2
		#having damestear
	}
	
	option = {
		name = magic_project_alchemy.1.a
		ai_chance = {
			factor = 100
		}
		
		random_list = {
			33 = {
				add_adm_power = 10
			}
			33 = {
				add_adm_power = 10
			}
			33 = {
				add_adm_power = 10
			}
		}
		
	}
}

#Mana Potion